{
  "config": {
    "crf_args": {
      "algorithm": "lbfgs",
      "c1": 0.1,
      "c2": 0.1
    },
    "data_augmentation_config": {
      "add_builtin_entities_examples": true,
      "capitalization_ratio": 0.2,
      "min_utterances": 200
    },
    "feature_factory_configs": [
      {
        "args": {
          "common_words_gazetteer_name": "top_10000_words_stemmed",
          "language_code": "en",
          "n": 1,
          "use_stemming": true
        },
        "factory_name": "ngram",
        "offsets": [
          -2,
          -1,
          0,
          1,
          2
        ]
      },
      {
        "args": {
          "common_words_gazetteer_name": "top_10000_words_stemmed",
          "language_code": "en",
          "n": 2,
          "use_stemming": true
        },
        "factory_name": "ngram",
        "offsets": [
          -2,
          1
        ]
      },
      {
        "args": {},
        "factory_name": "is_digit",
        "offsets": [
          -1,
          0,
          1
        ]
      },
      {
        "args": {},
        "factory_name": "is_first",
        "offsets": [
          -2,
          -1,
          0
        ]
      },
      {
        "args": {},
        "factory_name": "is_last",
        "offsets": [
          0,
          1,
          2
        ]
      },
      {
        "args": {
          "language_code": "en",
          "n": 1
        },
        "factory_name": "shape_ngram",
        "offsets": [
          0
        ]
      },
      {
        "args": {
          "language_code": "en",
          "n": 2
        },
        "factory_name": "shape_ngram",
        "offsets": [
          -1,
          0
        ]
      },
      {
        "args": {
          "language_code": "en",
          "n": 3
        },
        "factory_name": "shape_ngram",
        "offsets": [
          -1
        ]
      },
      {
        "args": {
          "entities": [
            "prefered_performance_place",
            "language",
            "gender",
            "fresher_experience",
            "location",
            "stagepoetspecialization",
            "stage_poet"
          ],
          "entity_filter": {
            "automatically_extensible": false
          },
          "tagging_scheme_code": 2,
          "use_stemming": true
        },
        "factory_name": "entity_match",
        "offsets": [
          -2,
          -1,
          0
        ]
      },
      {
        "args": {
          "entities": [
            "age"
          ],
          "entity_filter": {
            "automatically_extensible": true
          },
          "tagging_scheme_code": 2,
          "use_stemming": true
        },
        "drop_out": 0.5,
        "factory_name": "entity_match",
        "offsets": [
          -2,
          -1,
          0
        ]
      },
      {
        "args": {
          "entity_labels": [
            "snips/amountOfMoney",
            "snips/date",
            "snips/datePeriod",
            "snips/datetime",
            "snips/duration",
            "snips/number",
            "snips/ordinal",
            "snips/percentage",
            "snips/temperature",
            "snips/time",
            "snips/timePeriod"
          ],
          "language_code": "en",
          "tagging_scheme_code": 1
        },
        "factory_name": "builtin_entity_match",
        "offsets": [
          -2,
          -1,
          0
        ]
      },
      {
        "args": {
          "cluster_name": "brown_clusters",
          "use_stemming": false
        },
        "factory_name": "word_cluster",
        "offsets": [
          -2,
          -1,
          0,
          1
        ]
      }
    ],
    "tagging_scheme": 1,
    "unit_name": "crf_slot_filler"
  },
  "crf_model_file": "model.crfsuite",
  "intent": "stagepoetintent",
  "language_code": "en",
  "slot_name_mapping": {
    "age": "age",
    "fresher_experience": "fresher_experience",
    "gender": "gender",
    "language": "language",
    "location": "location",
    "prefered_performance_place": "prefered_performance_place",
    "stage_poet": "stage_poet",
    "stagepoetspecialization": "stagepoetspecialization"
  }
}